…
``` r
master_set_summarize %>%
  filter(!is.na(deaths)) %>%
  group_by(Country) %>%
  summarize(max_deaths = max(deaths)) %>%
  arrange(desc(max_deaths))
```

    ## # A tibble: 27 x 2
    ##    Country     max_deaths
    ##    <chr>            <int>
    ##  1 France            2004
    ##  2 Spain             1623
    ##  3 Italy              993
    ##  4 Poland             674
    ##  5 Germany            598
    ##  6 Belgium            322
    ##  7 Czechia            259
    ##  8 Ireland            234
    ##  9 Netherlands        234
    ## 10 Bulgaria           221
    ## # ... with 17 more rows

There 12,5221,834 cases of COVID recorded, with 280,049 deaths. This
gives a case fatality rate of 2.2%. The country with the highest ICU
occupancy per 100 thousand on one day was Czechia at 18.9. The country
with the highest amount of deaths in one day was France, with 2004
deaths.

``` r
master_set_summarize %>%
  count(Country) %>%
  arrange(n)
```

    ## # A tibble: 32 x 2
    ##    Country            n
    ##    <chr>          <int>
    ##  1 Liechtenstein     10
    ##  2 Switzerland       10
    ##  3 United Kingdom    24
    ##  4 Malta             88
    ##  5 Greece           127
    ##  6 Spain            194
    ##  7 Lithuania        202
    ##  8 Finland          228
    ##  9 Slovakia         326
    ## 10 Hungary          338
    ## # ... with 22 more rows
…
