…
``` r
data %>%
  filter(!is.na(deaths)) %>%
  group_by(Country) %>%
  summarize(max_deaths = max(deaths)) %>%
  arrange(desc(max_deaths))
```

    ## # A tibble: 25 x 2
    ##    Country     max_deaths
    ##    <chr>            <int>
    ##  1 France            2004
    ##  2 Italy              971
    ##  3 Belgium            322
    ##  4 Germany            315
    ##  5 Ireland            234
    ##  6 Netherlands        234
    ##  7 Sweden             115
    ##  8 Portugal            60
    ##  9 Finland             43
    ## 10 Romania             42
    ## # ... with 15 more rows
…
